{
  "sato": {
    "apple": 3,
    "banana": 2,
    "peach": 1
  },
  "tanaka": {
    "apple": 3,
    "banana": 4,
    "peach": 1
  },
  "bunya": {
    "apple": 1,
    "banana": 2,
    "peach": 3
  },
  "yamada": {
    "apple": 4,
    "banana": 2,
    "peach": 3
  },
  "yamashita": {
    "apple": 7,
    "banana": 7,
    "peach": 7
  },
  "yamamoto": {
    "apple": 1,
    "banana": 0,
    "peach": 0
  },
  "yamanaka": {
    "apple": 2,
    "banana": 3,
    "peach": 4
  },
  "yamauchi": {
    "apple": 4,
    "banana": 5,
    "peach": 6
  },
  "uchiyama": {
    "apple": 5,
    "banana": 1,
    "peach": 3
  },
  "kojima": {
    "apple": 6,
    "banana": 7,
    "peach": 1
  },
  "suzuki": {
    "apple": 1,
    "banana": 1,
    "peach": 1
  },
  "hiroe": {
    "apple": 0,
    "banana": 0,
    "peach": 1
  },
  "mori": {
    "apple": 5,
    "banana": 4,
    "peach": 3
  },
  "nakagawa": {
    "apple": 1,
    "banana": 2,
    "peach": 3
  },
  "kitagawa": {
    "apple": 2,
    "banana": 2,
    "peach": 2
  },
  "kitamura": {
    "apple": 1,
    "banana": 3,
    "peach": 1
  },
  "takahashi": {
    "apple": 3,
    "banana": 1,
    "peach": 3
  }
}
